Lorien,Lunch,GBP,48.01
Lorien,Lunch,GBP,48.01
Lorien,Lunch,GBP,48.01
Lorien,Lunch,GG,48.01
Lorien,Lunch,GBP,48.01
Lorien,Lunch,GBP,48.01
Lorien,Lunch,GBP,48.01
Lorien,Lunch,GBP,48.01
Lorien,Lunch,GBP,
Lorien,Lunch,GBP,48.01
Lorien,Lunch,INR,48.01
Lorien,Lunch,GBP,48.01
Lorien,Lunch,GBP,48.01
Lorien,Lunch,GBP,48.01
Lorien,,GBP,48.01
Lorien,Lunch,GBP,48.01
Lorien,Lunch,GBP,48.01
Lorien,Lunch,GBP,48.01
Lorien,Lunch,GBP,48.01
Lorien,Lunch,GBP,48.01
Lorien,Lunch,GBP,48.01
,Lunch,GBP,48.01
Lorien,Lunch,GBP,48.01
Lorien,Lunch,GBP,48.01
Lorien,Lunch,GBP,48.01
Lorien,Lunch,XXX,48.01
Lorien,Lunch,GBP,48.01
Lorien,Lunch,GBP,48.01